\relax 
\catcode `"\active 
\babel@aux{russian}{}
\@writefile{toc}{\contentsline {section}{\numberline {I}\IeC {\CYRP }\IeC {\cyro }\IeC {\cyrs }\IeC {\cyrt }\IeC {\cyrr }\IeC {\cyro }\IeC {\cyre }\IeC {\cyrn }\IeC {\cyri }\IeC {\cyre } \IeC {\cyrk }\IeC {\cyrr }\IeC {\cyri }\IeC {\cyrv }\IeC {\cyrery }\IeC {\cyrh } \IeC {\cyrb }\IeC {\cyrl }\IeC {\cyre }\IeC {\cyrs }\IeC {\cyrk }\IeC {\cyra }}{1}}
\@writefile{lof}{\contentsline {figure}{\numberline {1}{\ignorespaces \IeC {\CYRK }\IeC {\cyrr }\IeC {\cyri }\IeC {\cyrv }\IeC {\cyra }\IeC {\cyrya } \IeC {\cyrb }\IeC {\cyrl }\IeC {\cyre }\IeC {\cyrs }\IeC {\cyrk }\IeC {\cyra } \IeC {\cyrv } \IeC {\cyrf }\IeC {\cyri }\IeC {\cyrl }\IeC {\cyrsftsn }\IeC {\cyrt }\IeC {\cyrr }\IeC {\cyre } $J$. \IeC {\CYRS }\IeC {\cyri }\IeC {\cyrn }\IeC {\cyrya }\IeC {\cyrya } \IeC {\cyrl }\IeC {\cyri }\IeC {\cyrn }\IeC {\cyri }\IeC {\cyrya } - \IeC {\cyri }\IeC {\cyrz }\IeC {\cyru }\IeC {\cyrch }\IeC {\cyra }\IeC {\cyre }\IeC {\cyrm }\IeC {\cyra }\IeC {\cyrya } \IeC {\cyrz }\IeC {\cyrv }\IeC {\cyre }\IeC {\cyrz }\IeC {\cyrd }\IeC {\cyra }, \IeC {\cyro }\IeC {\cyrr }\IeC {\cyra }\IeC {\cyrn }\IeC {\cyrzh }\IeC {\cyre }\IeC {\cyrv }\IeC {\cyra }\IeC {\cyrya } \IeC {\cyrl }\IeC {\cyri }\IeC {\cyrn }\IeC {\cyri }\IeC {\cyrya } \IeC {\cyri } \IeC {\cyrz }\IeC {\cyre }\IeC {\cyrl }\IeC {\cyryo }\IeC {\cyrn }\IeC {\cyra }\IeC {\cyrya } - \IeC {\cyrp }\IeC {\cyre }\IeC {\cyrr }\IeC {\cyrv }\IeC {\cyra }\IeC {\cyrya } \IeC {\cyri } \IeC {\cyrv }\IeC {\cyrt }\IeC {\cyro }\IeC {\cyrr }\IeC {\cyra }\IeC {\cyrya } \IeC {\cyrz }\IeC {\cyrv }\IeC {\cyryo }\IeC {\cyrz }\IeC {\cyrd }\IeC {\cyrery } \IeC {\cyrs }\IeC {\cyrt }\IeC {\cyra }\IeC {\cyrn }\IeC {\cyrd }\IeC {\cyra }\IeC {\cyrr }\IeC {\cyrt }\IeC {\cyra } \IeC {\cyrs }\IeC {\cyro }\IeC {\cyro }\IeC {\cyrt }\IeC {\cyrv }\IeC {\cyre }\IeC {\cyrt }\IeC {\cyrs }\IeC {\cyrt }\IeC {\cyrv }\IeC {\cyre }\IeC {\cyrn }\IeC {\cyrn }\IeC {\cyro }.\relax }}{1}}
\@writefile{lof}{\contentsline {figure}{\numberline {2}{\ignorespaces \IeC {\CYRK }\IeC {\cyrr }\IeC {\cyri }\IeC {\cyrv }\IeC {\cyra }\IeC {\cyrya } \IeC {\cyrb }\IeC {\cyrl }\IeC {\cyre }\IeC {\cyrs }\IeC {\cyrk }\IeC {\cyra } \IeC {\cyrv } \IeC {\cyrf }\IeC {\cyri }\IeC {\cyrl }\IeC {\cyrsftsn }\IeC {\cyrt }\IeC {\cyrr }\IeC {\cyre } $H$. \IeC {\CYRS }\IeC {\cyri }\IeC {\cyrn }\IeC {\cyrya }\IeC {\cyrya } \IeC {\cyrl }\IeC {\cyri }\IeC {\cyrn }\IeC {\cyri }\IeC {\cyrya } - \IeC {\cyri }\IeC {\cyrz }\IeC {\cyru }\IeC {\cyrch }\IeC {\cyra }\IeC {\cyre }\IeC {\cyrm }\IeC {\cyra }\IeC {\cyrya } \IeC {\cyrz }\IeC {\cyrv }\IeC {\cyre }\IeC {\cyrz }\IeC {\cyrd }\IeC {\cyra }, \IeC {\cyro }\IeC {\cyrr }\IeC {\cyra }\IeC {\cyrn }\IeC {\cyrzh }\IeC {\cyre }\IeC {\cyrv }\IeC {\cyra }\IeC {\cyrya } \IeC {\cyrl }\IeC {\cyri }\IeC {\cyrn }\IeC {\cyri }\IeC {\cyrya } \IeC {\cyri } \IeC {\cyrz }\IeC {\cyre }\IeC {\cyrl }\IeC {\cyryo }\IeC {\cyrn }\IeC {\cyra }\IeC {\cyrya } - \IeC {\cyrp }\IeC {\cyre }\IeC {\cyrr }\IeC {\cyrv }\IeC {\cyra }\IeC {\cyrya } \IeC {\cyri } \IeC {\cyrv }\IeC {\cyrt }\IeC {\cyro }\IeC {\cyrr }\IeC {\cyra }\IeC {\cyrya } \IeC {\cyrz }\IeC {\cyrv }\IeC {\cyryo }\IeC {\cyrz }\IeC {\cyrd }\IeC {\cyrery } \IeC {\cyrs }\IeC {\cyrt }\IeC {\cyra }\IeC {\cyrn }\IeC {\cyrd }\IeC {\cyra }\IeC {\cyrr }\IeC {\cyrt }\IeC {\cyra } \IeC {\cyrs }\IeC {\cyro }\IeC {\cyro }\IeC {\cyrt }\IeC {\cyrv }\IeC {\cyre }\IeC {\cyrt }\IeC {\cyrs }\IeC {\cyrt }\IeC {\cyrv }\IeC {\cyre }\IeC {\cyrn }\IeC {\cyrn }\IeC {\cyro }.\relax }}{1}}
\@writefile{lof}{\contentsline {figure}{\numberline {3}{\ignorespaces \IeC {\CYRK }\IeC {\cyrr }\IeC {\cyri }\IeC {\cyrv }\IeC {\cyra }\IeC {\cyrya } \IeC {\cyrb }\IeC {\cyrl }\IeC {\cyre }\IeC {\cyrs }\IeC {\cyrk }\IeC {\cyra } \IeC {\cyrv } \IeC {\cyrf }\IeC {\cyri }\IeC {\cyrl }\IeC {\cyrsftsn }\IeC {\cyrt }\IeC {\cyrr }\IeC {\cyre } $K$. \IeC {\CYRS }\IeC {\cyri }\IeC {\cyrn }\IeC {\cyrya }\IeC {\cyrya } \IeC {\cyrl }\IeC {\cyri }\IeC {\cyrn }\IeC {\cyri }\IeC {\cyrya } - \IeC {\cyri }\IeC {\cyrz }\IeC {\cyru }\IeC {\cyrch }\IeC {\cyra }\IeC {\cyre }\IeC {\cyrm }\IeC {\cyra }\IeC {\cyrya } \IeC {\cyrz }\IeC {\cyrv }\IeC {\cyre }\IeC {\cyrz }\IeC {\cyrd }\IeC {\cyra }, \IeC {\cyro }\IeC {\cyrr }\IeC {\cyra }\IeC {\cyrn }\IeC {\cyrzh }\IeC {\cyre }\IeC {\cyrv }\IeC {\cyra }\IeC {\cyrya } \IeC {\cyrl }\IeC {\cyri }\IeC {\cyrn }\IeC {\cyri }\IeC {\cyrya } \IeC {\cyri } \IeC {\cyrz }\IeC {\cyre }\IeC {\cyrl }\IeC {\cyryo }\IeC {\cyrn }\IeC {\cyra }\IeC {\cyrya } - \IeC {\cyrp }\IeC {\cyre }\IeC {\cyrr }\IeC {\cyrv }\IeC {\cyra }\IeC {\cyrya } \IeC {\cyri } \IeC {\cyrv }\IeC {\cyrt }\IeC {\cyro }\IeC {\cyrr }\IeC {\cyra }\IeC {\cyrya } \IeC {\cyrz }\IeC {\cyrv }\IeC {\cyryo }\IeC {\cyrz }\IeC {\cyrd }\IeC {\cyrery } \IeC {\cyrs }\IeC {\cyrt }\IeC {\cyra }\IeC {\cyrn }\IeC {\cyrd }\IeC {\cyra }\IeC {\cyrr }\IeC {\cyrt }\IeC {\cyra } \IeC {\cyrs }\IeC {\cyro }\IeC {\cyro }\IeC {\cyrt }\IeC {\cyrv }\IeC {\cyre }\IeC {\cyrt }\IeC {\cyrs }\IeC {\cyrt }\IeC {\cyrv }\IeC {\cyre }\IeC {\cyrn }\IeC {\cyrn }\IeC {\cyro }.\relax }}{2}}
\@writefile{toc}{\contentsline {section}{\numberline {II}\IeC {\CYRP }\IeC {\cyro }\IeC {\cyrs }\IeC {\cyrt }\IeC {\cyrr }\IeC {\cyro }\IeC {\cyre }\IeC {\cyrn }\IeC {\cyri }\IeC {\cyre } \IeC {\cyrf }\IeC {\cyra }\IeC {\cyrz }\IeC {\cyro }\IeC {\cyrv }\IeC {\cyrery }\IeC {\cyrh } \IeC {\cyrk }\IeC {\cyrr }\IeC {\cyri }\IeC {\cyrv }\IeC {\cyrery }\IeC {\cyrh }}{2}}
\@writefile{lof}{\contentsline {figure}{\numberline {4}{\ignorespaces \IeC {\CYRF }\IeC {\cyra }\IeC {\cyrz }\IeC {\cyro }\IeC {\cyrv }\IeC {\cyra }\IeC {\cyrya }\IeC {\cyrya } \IeC {\cyrk }\IeC {\cyrr }\IeC {\cyri }\IeC {\cyrv }\IeC {\cyra }\IeC {\cyrya } \IeC {\cyrb }\IeC {\cyrl }\IeC {\cyre }\IeC {\cyrs }\IeC {\cyrk }\IeC {\cyra } \IeC {\cyrv } \IeC {\cyrf }\IeC {\cyri }\IeC {\cyrl }\IeC {\cyrsftsn }\IeC {\cyrt }\IeC {\cyrr }\IeC {\cyre } $J$. \IeC {\CYRZ }\IeC {\cyra } \IeC {\cyrp }\IeC {\cyre }\IeC {\cyrr }\IeC {\cyri }\IeC {\cyro }\IeC {\cyrd } \IeC {\cyrb }\IeC {\cyrery }\IeC {\cyrl }\IeC {\cyro } \IeC {\cyrv }\IeC {\cyrz }\IeC {\cyrya }\IeC {\cyrt }\IeC {\cyro } 590 \IeC {\cyrs }\IeC {\cyru }\IeC {\cyrt }\IeC {\cyro }\IeC {\cyrk }.\relax }}{2}}
\@writefile{lof}{\contentsline {figure}{\numberline {5}{\ignorespaces \IeC {\CYRF }\IeC {\cyra }\IeC {\cyrz }\IeC {\cyro }\IeC {\cyrv }\IeC {\cyra }\IeC {\cyrya }\IeC {\cyrya } \IeC {\cyrk }\IeC {\cyrr }\IeC {\cyri }\IeC {\cyrv }\IeC {\cyra }\IeC {\cyrya } \IeC {\cyrb }\IeC {\cyrl }\IeC {\cyre }\IeC {\cyrs }\IeC {\cyrk }\IeC {\cyra } \IeC {\cyrv } \IeC {\cyrf }\IeC {\cyri }\IeC {\cyrl }\IeC {\cyrsftsn }\IeC {\cyrt }\IeC {\cyrr }\IeC {\cyre } $H$. \IeC {\CYRZ }\IeC {\cyra } \IeC {\cyrp }\IeC {\cyre }\IeC {\cyrr }\IeC {\cyri }\IeC {\cyro }\IeC {\cyrd } \IeC {\cyrb }\IeC {\cyrery }\IeC {\cyrl }\IeC {\cyro } \IeC {\cyrv }\IeC {\cyrz }\IeC {\cyrya }\IeC {\cyrt }\IeC {\cyro } 590 \IeC {\cyrs }\IeC {\cyru }\IeC {\cyrt }\IeC {\cyro }\IeC {\cyrk }.\relax }}{3}}
\@writefile{lof}{\contentsline {figure}{\numberline {6}{\ignorespaces \IeC {\CYRF }\IeC {\cyra }\IeC {\cyrz }\IeC {\cyro }\IeC {\cyrv }\IeC {\cyra }\IeC {\cyrya }\IeC {\cyrya } \IeC {\cyrk }\IeC {\cyrr }\IeC {\cyri }\IeC {\cyrv }\IeC {\cyra }\IeC {\cyrya } \IeC {\cyrb }\IeC {\cyrl }\IeC {\cyre }\IeC {\cyrs }\IeC {\cyrk }\IeC {\cyra } \IeC {\cyrv } \IeC {\cyrf }\IeC {\cyri }\IeC {\cyrl }\IeC {\cyrsftsn }\IeC {\cyrt }\IeC {\cyrr }\IeC {\cyre } $K$. \IeC {\CYRZ }\IeC {\cyra } \IeC {\cyrp }\IeC {\cyre }\IeC {\cyrr }\IeC {\cyri }\IeC {\cyro }\IeC {\cyrd } \IeC {\cyrb }\IeC {\cyrery }\IeC {\cyrl }\IeC {\cyro } \IeC {\cyrv }\IeC {\cyrz }\IeC {\cyrya }\IeC {\cyrt }\IeC {\cyro } 590 \IeC {\cyrs }\IeC {\cyru }\IeC {\cyrt }\IeC {\cyro }\IeC {\cyrk }.\relax }}{3}}
\@writefile{toc}{\contentsline {section}{\numberline {III}\IeC {\CYRP }\IeC {\cyro }\IeC {\cyrl }\IeC {\cyru }\IeC {\cyrch }\IeC {\cyre }\IeC {\cyrn }\IeC {\cyri }\IeC {\cyre } \IeC {\cyrp }\IeC {\cyro }\IeC {\cyrk }\IeC {\cyra }\IeC {\cyrz }\IeC {\cyra }\IeC {\cyrt }\IeC {\cyre }\IeC {\cyrl }\IeC {\cyre }\IeC {\cyrishrt } \IeC {\cyrc }\IeC {\cyrv }\IeC {\cyre }\IeC {\cyrt }\IeC {\cyra }}{4}}
\@writefile{lof}{\contentsline {figure}{\numberline {7}{\ignorespaces \IeC {\CYRP }\IeC {\cyro }\IeC {\cyrk }\IeC {\cyra }\IeC {\cyrz }\IeC {\cyra }\IeC {\cyrt }\IeC {\cyre }\IeC {\cyrl }\IeC {\cyrsftsn } \IeC {\cyrc }\IeC {\cyrv }\IeC {\cyre }\IeC {\cyrt }\IeC {\cyra } $J-K$.\relax }}{4}}
\@writefile{lof}{\contentsline {figure}{\numberline {8}{\ignorespaces \IeC {\CYRP }\IeC {\cyro }\IeC {\cyrk }\IeC {\cyra }\IeC {\cyrz }\IeC {\cyra }\IeC {\cyrt }\IeC {\cyre }\IeC {\cyrl }\IeC {\cyrsftsn } \IeC {\cyrc }\IeC {\cyrv }\IeC {\cyre }\IeC {\cyrt }\IeC {\cyra } $H-K$.\relax }}{4}}
\ttl@finishall
